{
  "data": [
    {
      "qid": "gov-000",
      "text": "John Glover Roberts, Jr. (born January 27, 1955) is the 17th and current Chief Justice of the United States.",
      "judgments": ["chief-justice"]
    },
    {
      "qid": "gov-001",
      "text": "Congress is passing laws about something.",
      "judgments": ["senate", "house-of-reps"]
    },
    {
      "qid": "gov-002",
      "text": "A dinosaur was recently elected to senate.",
      "judgments": ["senate"]
    },
    {
      "qid": "gov-003",
      "text": "The case might make it all the way to the supreme court.",
      "judgments": ["supreme-court"]
    },
    {
      "qid": "gov-004",
      "text": "In futurama, the head of the world state (president) is Ronald Reagan's head.",
      "judgments": ["head-of-state", "head-of-government"]
    }
  ]
}