{
  "attribution": "This data sourced from Wikipedia to be a good example of the task.",
  "data": [
    {
      "id": "executive",
      "description": "The executive is the part of the government that has sole authority and responsibility for the daily administration of the state."
    },
    {
      "id": "legislative",
      "description": "A legislature is a state's internal decision-making organization, usually associated with national government, that has the power to enact, amend, and repeal public policy."
    },
    {
      "id": "judiciary",
      "description": "The judiciary (also known as the judicial system or court system) is the system of courts that interprets and applies the law in the name of the state."
    },
    {
      "id": "supreme-court",
      "description": "A supreme court is the highest court within the hierarchy of many legal jurisdictions.",
      "parent": "judiciary"
    },
    {
      "id": "chief-justice",
      "description": "The Chief Justice of the United States is the head of the United States federal court system (the judicial branch of the federal government of the United States) and the chief judge of the Supreme Court of the United States.",
      "parent": "judiciary"
    },
    {
      "id": "head-of-state",
      "description": "A head of state, in a sovereign state, is the highest-ranking constitutional position in the state. The head of state is vested with powers to act as the chief public representative of that state.",
      "parent": "executive"
    },
    {
      "id": "head-of-government",
      "description": "Head of government is a generic term used for either the highest or second highest official in the executive branch of a sovereign state, a federated state, or a self-governing colony who often presides over a cabinet.",
      "parent": "executive"
    },
    {
      "id": "senate",
      "description": "A senate is a deliberative assembly, often the upper house or chamber of a bicameral legislature or parliament.",
      "parent": "legislative"
    },
    {
      "id": "house-of-reps",
      "description": "House of Representatives is the name of legislative bodies in many countries and sub-national entities.",
      "parent": "legislative"
    }
  ]
}